1;Ángel de Fez;angeldefez@email.com;angeldefez;1234;12345678X;angeldefez.jpg
2;Paco Aldarias;pacoaldarias@ceedcv.com;pacoaldarias;1234;12345678A;pacoaldarias.png
3;Joaquín Gilabert;joaquingilabert@ceedcv.com;joaquingilabert;1234;12345679B;joaquin.jpg
4;Sandra Palmo;sandrapalmo@ceedcv.com;sandrapalmo;1234;12345680C;sandra.jpg
7;Pablo Martín;pablomartin@ceedcv.com;pablomartin;1234;12345682E;pablo.jpg
5;Irene Espinar;irene3spinar@ceedcv.com;irene3spinar;1234;12345681D;irene.jpg
