1;"Kingston A400 SSD 240GB";"32.99";"Se trata del modelo más modesto de los que Kingston tiene actualmente en el mercado y se dirige a usuarios de presupuesto limitado que busquen sustituir su disco duro mecánico para incrementar el rendimiento de su equipo."
2;"Xiaomi Mi Air 13.3";899;"El Xiaomi Mi Notebook Aires ligero, es compacto, y podrás llevarlo fácilmente a cualquier lugar sin darte cuenta de que lo llevas encima."
3;"Huawei P20 Lite 64GB Azul Libre";"233.24";"Huawei P20 Lite parece estar destinado a ser un superventas, con una relación calidad/precio sorprendente."
4;"LG 43UK6200PLA 43"" LED IPS UltraHD 4K";299;"La mejor pantalla calidad precio de toda la página, es 4K nativo."
5;"Logitech B100 Ratón Negro";"4.99";"Cómodo, diseño ambidiestro La forma cómoda y de bajo perfil se siente bien en cualquier mano, incluso después de un largo día de trabajo."
7;"Samsung UE50NU7025 50"" LED UltraHD 4K";385;"Vive una experiencia visual a todo color. Por fin podrás disfrutar de tu contenido preferido con colores más vivos y realistas."
8;"Kobo Clara HD eReader 6"" ";129;"El Kobo Clara HD es el compañero perfecto para cualquier amante de la lectura. Siempre proporciona la mejor luz de lectura, gracias a la ComfortLight PRO, y es garantía de una experiencia de lectura natural, como si se tratase de papel impreso, con su excepcional pantalla HD de 6."
9;"Canon Pixma MX475 Multifunción WiFi/Fax";"52.35";"Equipo Todo en Uno para oficina doméstica con conectividad inalámbrica y alimentador automático de documentos Imprime, copia, escanea y envía fax con facilidad con este asequible equipo Todo en Uno Wi-Fi."
10;"Grand Theft Auto V PS4";"28.63";"Vive la historia de Trevor, Michael y Franklin a través de Los Santos y el condado de Blaine. Juega la campaña principal o piérdete entre sus calles con las innumerables tareas y actividades opcionales a las que podrás acceder."
